{
    "/js/app.js": "/js/app.js",
    "/js/alpine.js": "/js/alpine.js",
    "/css/pikaday.css": "/css/pikaday.css",
    "/css/app.css": "/css/app.css",
    "/css/materialize.css": "/css/materialize.css"
}
